{
    "name": "SardineUtils",
    "short": "Weird Utilities :P",
    "description": "Weird Utilities :P",
    "end_user_data_statement": "This cog does not persistently store any data or metadata about users.",
    "install_msg": "Thanks!",
    "author": [
        "Sardine123"
    ],
    "required_cogs": {},
    "requirements": [],
    "tags": [
        "tag1",
        "tag2",
        "tag3"
    ],
    "min_bot_version": "3.3.10",
    "hidden": false,
    "disabled": false,
    "type": "COG"
}
